[
  {
    "id": 1,
    "name": "Sample task #1",
    "estimate": 25,
    "startDate": "2017-09-01T00:00:00Z",
    "endDate": "2017-09-05T00:00:00Z",
    "statusId": 1,
    "projectId": 1,
    "userIds": [1]
  },
  {
    "id": 2,
    "name": "Sample task #2",
    "estimate": 10,
    "startDate": "2017-09-02T00:00:00Z",
    "endDate": "2017-09-03T00:00:00Z",
    "statusId": 4,
    "projectId": 1,
    "userIds": [1]
  }
]